{"frames": {

"bigHouse_end":
{
	"frame": {"x":675,"y":584,"w":224,"h":366},
	"rotated": false,
	"trimmed": true,
	"spriteSourceSize": {"x":2,"y":0,"w":224,"h":366},
	"sourceSize": {"w":257,"h":366}
},
"bigHouse_start":
{
	"frame": {"x":1,"y":1535,"w":257,"h":355},
	"rotated": false,
	"trimmed": true,
	"spriteSourceSize": {"x":0,"y":0,"w":257,"h":355},
	"sourceSize": {"w":257,"h":366}
},
"blue_blink_10001":
{
	"frame": {"x":1813,"y":1153,"w":3,"h":3},
	"rotated": false,
	"trimmed": true,
	"spriteSourceSize": {"x":0,"y":0,"w":3,"h":3},
	"sourceSize": {"w":51,"h":66}
},
"blue_blink_10002":
{
	"frame": {"x":1813,"y":1153,"w":3,"h":3},
	"rotated": false,
	"trimmed": true,
	"spriteSourceSize": {"x":0,"y":0,"w":3,"h":3},
	"sourceSize": {"w":51,"h":66}
},
"blue_blink_10003":
{
	"frame": {"x":1813,"y":1153,"w":3,"h":3},
	"rotated": false,
	"trimmed": true,
	"spriteSourceSize": {"x":0,"y":0,"w":3,"h":3},
	"sourceSize": {"w":51,"h":66}
},
"blue_blink_10004":
{
	"frame": {"x":1813,"y":1153,"w":3,"h":3},
	"rotated": false,
	"trimmed": true,
	"spriteSourceSize": {"x":0,"y":0,"w":3,"h":3},
	"sourceSize": {"w":51,"h":66}
},
"blue_blink_10005":
{
	"frame": {"x":1813,"y":1153,"w":3,"h":3},
	"rotated": false,
	"trimmed": true,
	"spriteSourceSize": {"x":0,"y":0,"w":3,"h":3},
	"sourceSize": {"w":51,"h":66}
},
"blue_blink_10006":
{
	"frame": {"x":1813,"y":1153,"w":3,"h":3},
	"rotated": false,
	"trimmed": true,
	"spriteSourceSize": {"x":0,"y":0,"w":3,"h":3},
	"sourceSize": {"w":51,"h":66}
},
"blue_blink_10007":
{
	"frame": {"x":1701,"y":1347,"w":28,"h":27},
	"rotated": false,
	"trimmed": true,
	"spriteSourceSize": {"x":0,"y":0,"w":28,"h":27},
	"sourceSize": {"w":51,"h":66}
},
"blue_blink_10008":
{
	"frame": {"x":1990,"y":1199,"w":37,"h":38},
	"rotated": false,
	"trimmed": true,
	"spriteSourceSize": {"x":0,"y":0,"w":37,"h":38},
	"sourceSize": {"w":51,"h":66}
},
"blue_blink_10009":
{
	"frame": {"x":1630,"y":1944,"w":43,"h":47},
	"rotated": false,
	"trimmed": true,
	"spriteSourceSize": {"x":0,"y":0,"w":43,"h":47},
	"sourceSize": {"w":51,"h":66}
},
"blue_blink_10010":
{
	"frame": {"x":1149,"y":1989,"w":47,"h":55},
	"rotated": false,
	"trimmed": true,
	"spriteSourceSize": {"x":0,"y":0,"w":47,"h":55},
	"sourceSize": {"w":51,"h":66}
},
"blue_blink_10011":
{
	"frame": {"x":1481,"y":1888,"w":51,"h":61},
	"rotated": false,
	"trimmed": true,
	"spriteSourceSize": {"x":0,"y":0,"w":51,"h":61},
	"sourceSize": {"w":51,"h":66}
},
"blue_blink_10012":
{
	"frame": {"x":710,"y":1587,"w":51,"h":65},
	"rotated": false,
	"trimmed": true,
	"spriteSourceSize": {"x":0,"y":0,"w":51,"h":65},
	"sourceSize": {"w":51,"h":66}
},
"blue_blink_10013":
{
	"frame": {"x":710,"y":1519,"w":51,"h":66},
	"rotated": false,
	"trimmed": false,
	"spriteSourceSize": {"x":0,"y":0,"w":51,"h":66},
	"sourceSize": {"w":51,"h":66}
},
"blue_blink_10014":
{
	"frame": {"x":1930,"y":534,"w":51,"h":63},
	"rotated": false,
	"trimmed": true,
	"spriteSourceSize": {"x":0,"y":3,"w":51,"h":63},
	"sourceSize": {"w":51,"h":66}
},
"blue_blink_10015":
{
	"frame": {"x":1534,"y":1888,"w":49,"h":58},
	"rotated": false,
	"trimmed": true,
	"spriteSourceSize": {"x":2,"y":8,"w":49,"h":58},
	"sourceSize": {"w":51,"h":66}
},
"blue_blink_10016":
{
	"frame": {"x":1588,"y":1993,"w":45,"h":51},
	"rotated": false,
	"trimmed": true,
	"spriteSourceSize": {"x":6,"y":15,"w":45,"h":51},
	"sourceSize": {"w":51,"h":66}
},
"blue_blink_10017":
{
	"frame": {"x":1588,"y":1947,"w":40,"h":43},
	"rotated": false,
	"trimmed": true,
	"spriteSourceSize": {"x":11,"y":23,"w":40,"h":43},
	"sourceSize": {"w":51,"h":66}
},
"blue_blink_10018":
{
	"frame": {"x":1307,"y":1721,"w":33,"h":33},
	"rotated": false,
	"trimmed": true,
	"spriteSourceSize": {"x":18,"y":33,"w":33,"h":33},
	"sourceSize": {"w":51,"h":66}
},
"blue_blink_10019":
{
	"frame": {"x":614,"y":641,"w":21,"h":20},
	"rotated": false,
	"trimmed": true,
	"spriteSourceSize": {"x":29,"y":46,"w":21,"h":20},
	"sourceSize": {"w":51,"h":66}
},
"blue_blink_10020":
{
	"frame": {"x":1813,"y":1153,"w":3,"h":3},
	"rotated": false,
	"trimmed": true,
	"spriteSourceSize": {"x":0,"y":0,"w":3,"h":3},
	"sourceSize": {"w":51,"h":66}
},
"blue_blink_10021":
{
	"frame": {"x":1813,"y":1153,"w":3,"h":3},
	"rotated": false,
	"trimmed": true,
	"spriteSourceSize": {"x":0,"y":0,"w":3,"h":3},
	"sourceSize": {"w":51,"h":66}
},
"blue_blink_10022":
{
	"frame": {"x":1813,"y":1153,"w":3,"h":3},
	"rotated": false,
	"trimmed": true,
	"spriteSourceSize": {"x":0,"y":0,"w":3,"h":3},
	"sourceSize": {"w":51,"h":66}
},
"blue_blink_10023":
{
	"frame": {"x":1813,"y":1153,"w":3,"h":3},
	"rotated": false,
	"trimmed": true,
	"spriteSourceSize": {"x":0,"y":0,"w":3,"h":3},
	"sourceSize": {"w":51,"h":66}
},
"blue_blink_10024":
{
	"frame": {"x":1813,"y":1153,"w":3,"h":3},
	"rotated": false,
	"trimmed": true,
	"spriteSourceSize": {"x":0,"y":0,"w":3,"h":3},
	"sourceSize": {"w":51,"h":66}
},
"blue_blink_10025":
{
	"frame": {"x":1813,"y":1153,"w":3,"h":3},
	"rotated": false,
	"trimmed": true,
	"spriteSourceSize": {"x":0,"y":0,"w":3,"h":3},
	"sourceSize": {"w":51,"h":66}
},
"bomb_icon":
{
	"frame": {"x":1630,"y":1887,"w":43,"h":55},
	"rotated": false,
	"trimmed": true,
	"spriteSourceSize": {"x":3,"y":0,"w":43,"h":55},
	"sourceSize": {"w":55,"h":55}
},
"boom_8":
{
	"frame": {"x":329,"y":1879,"w":151,"h":160},
	"rotated": false,
	"trimmed": true,
	"spriteSourceSize": {"x":34,"y":22,"w":151,"h":160},
	"sourceSize": {"w":219,"h":219}
},
"boom_9":
{
	"frame": {"x":329,"y":1879,"w":151,"h":160},
	"rotated": false,
	"trimmed": true,
	"spriteSourceSize": {"x":34,"y":22,"w":151,"h":160},
	"sourceSize": {"w":219,"h":219}
},
"boom_10":
{
	"frame": {"x":1344,"y":947,"w":181,"h":209},
	"rotated": false,
	"trimmed": true,
	"spriteSourceSize": {"x":17,"y":1,"w":181,"h":209},
	"sourceSize": {"w":219,"h":219}
},
"boom_11":
{
	"frame": {"x":1344,"y":947,"w":181,"h":209},
	"rotated": false,
	"trimmed": true,
	"spriteSourceSize": {"x":17,"y":1,"w":181,"h":209},
	"sourceSize": {"w":219,"h":219}
},
"boom_12":
{
	"frame": {"x":971,"y":1185,"w":193,"h":215},
	"rotated": false,
	"trimmed": true,
	"spriteSourceSize": {"x":19,"y":3,"w":193,"h":215},
	"sourceSize": {"w":219,"h":219}
},
"boom_13":
{
	"frame": {"x":971,"y":1185,"w":193,"h":215},
	"rotated": false,
	"trimmed": true,
	"spriteSourceSize": {"x":19,"y":3,"w":193,"h":215},
	"sourceSize": {"w":219,"h":219}
},
"boom_14":
{
	"frame": {"x":764,"y":1211,"w":205,"h":216},
	"rotated": false,
	"trimmed": true,
	"spriteSourceSize": {"x":13,"y":1,"w":205,"h":216},
	"sourceSize": {"w":219,"h":219}
},
"boom_15":
{
	"frame": {"x":1166,"y":1158,"w":205,"h":215},
	"rotated": false,
	"trimmed": true,
	"spriteSourceSize": {"x":12,"y":1,"w":205,"h":215},
	"sourceSize": {"w":219,"h":219}
},
"boom_16":
{
	"frame": {"x":1373,"y":1158,"w":206,"h":214},
	"rotated": false,
	"trimmed": true,
	"spriteSourceSize": {"x":11,"y":0,"w":206,"h":214},
	"sourceSize": {"w":219,"h":219}
},
"boom_17":
{
	"frame": {"x":1605,"y":795,"w":211,"h":207},
	"rotated": false,
	"trimmed": true,
	"spriteSourceSize": {"x":5,"y":0,"w":211,"h":207},
	"sourceSize": {"w":219,"h":219}
},
"boom_18":
{
	"frame": {"x":1214,"y":738,"w":215,"h":207},
	"rotated": false,
	"trimmed": true,
	"spriteSourceSize": {"x":0,"y":1,"w":215,"h":207},
	"sourceSize": {"w":219,"h":219}
},
"boom_19":
{
	"frame": {"x":1129,"y":947,"w":213,"h":209},
	"rotated": false,
	"trimmed": true,
	"spriteSourceSize": {"x":0,"y":1,"w":213,"h":209},
	"sourceSize": {"w":219,"h":219}
},
"boom_20":
{
	"frame": {"x":498,"y":1465,"w":210,"h":209},
	"rotated": false,
	"trimmed": true,
	"spriteSourceSize": {"x":0,"y":1,"w":210,"h":209},
	"sourceSize": {"w":219,"h":219}
},
"boom_21":
{
	"frame": {"x":285,"y":1465,"w":211,"h":209},
	"rotated": false,
	"trimmed": true,
	"spriteSourceSize": {"x":0,"y":1,"w":211,"h":209},
	"sourceSize": {"w":219,"h":219}
},
"boom_22":
{
	"frame": {"x":260,"y":1676,"w":211,"h":201},
	"rotated": false,
	"trimmed": true,
	"spriteSourceSize": {"x":0,"y":4,"w":211,"h":201},
	"sourceSize": {"w":219,"h":219}
},
"boom_23":
{
	"frame": {"x":1818,"y":795,"w":209,"h":201},
	"rotated": false,
	"trimmed": true,
	"spriteSourceSize": {"x":0,"y":6,"w":209,"h":201},
	"sourceSize": {"w":219,"h":219}
},
"boom_24":
{
	"frame": {"x":1818,"y":998,"w":209,"h":199},
	"rotated": false,
	"trimmed": true,
	"spriteSourceSize": {"x":0,"y":8,"w":209,"h":199},
	"sourceSize": {"w":219,"h":219}
},
"boom_25":
{
	"frame": {"x":473,"y":1676,"w":207,"h":189},
	"rotated": false,
	"trimmed": true,
	"spriteSourceSize": {"x":2,"y":12,"w":207,"h":189},
	"sourceSize": {"w":219,"h":219}
},
"boom_26":
{
	"frame": {"x":971,"y":1402,"w":197,"h":173},
	"rotated": false,
	"trimmed": true,
	"spriteSourceSize": {"x":7,"y":20,"w":197,"h":173},
	"sourceSize": {"w":219,"h":219}
},
"boom_27":
{
	"frame": {"x":1431,"y":738,"w":172,"h":177},
	"rotated": false,
	"trimmed": true,
	"spriteSourceSize": {"x":20,"y":18,"w":172,"h":177},
	"sourceSize": {"w":219,"h":219}
},
"boom_28":
{
	"frame": {"x":1701,"y":1376,"w":169,"h":170},
	"rotated": false,
	"trimmed": true,
	"spriteSourceSize": {"x":21,"y":22,"w":169,"h":170},
	"sourceSize": {"w":219,"h":219}
},
"boom_29":
{
	"frame": {"x":1701,"y":1376,"w":169,"h":170},
	"rotated": false,
	"trimmed": true,
	"spriteSourceSize": {"x":25,"y":25,"w":169,"h":170},
	"sourceSize": {"w":219,"h":219}
},
"bridge_end":
{
	"frame": {"x":764,"y":1429,"w":205,"h":186},
	"rotated": false,
	"trimmed": false,
	"spriteSourceSize": {"x":0,"y":0,"w":205,"h":186},
	"sourceSize": {"w":205,"h":186}
},
"bridge_start":
{
	"frame": {"x":1,"y":1892,"w":182,"h":151},
	"rotated": false,
	"trimmed": true,
	"spriteSourceSize": {"x":15,"y":13,"w":182,"h":151},
	"sourceSize": {"w":205,"h":186}
},
"cityCorrect":
{
	"frame": {"x":1,"y":1,"w":611,"h":660},
	"rotated": false,
	"trimmed": false,
	"spriteSourceSize": {"x":0,"y":0,"w":611,"h":660},
	"sourceSize": {"w":611,"h":660}
},
"field":
{
	"frame": {"x":1,"y":663,"w":672,"h":488},
	"rotated": false,
	"trimmed": false,
	"spriteSourceSize": {"x":0,"y":0,"w":672,"h":488},
	"sourceSize": {"w":672,"h":488}
},
"final_popup":
{
	"frame": {"x":1286,"y":1,"w":642,"h":596},
	"rotated": false,
	"trimmed": false,
	"spriteSourceSize": {"x":0,"y":0,"w":642,"h":596},
	"sourceSize": {"w":642,"h":596}
},
"F_1":
{
	"frame": {"x":1831,"y":1731,"w":74,"h":88},
	"rotated": false,
	"trimmed": true,
	"spriteSourceSize": {"x":7,"y":0,"w":74,"h":88},
	"sourceSize": {"w":88,"h":88}
},
"F_2":
{
	"frame": {"x":1895,"y":1883,"w":66,"h":88},
	"rotated": false,
	"trimmed": true,
	"spriteSourceSize": {"x":11,"y":0,"w":66,"h":88},
	"sourceSize": {"w":88,"h":88}
},
"F_3":
{
	"frame": {"x":1930,"y":97,"w":88,"h":88},
	"rotated": false,
	"trimmed": false,
	"spriteSourceSize": {"x":0,"y":0,"w":88,"h":88},
	"sourceSize": {"w":88,"h":88}
},
"F_4":
{
	"frame": {"x":1930,"y":277,"w":86,"h":86},
	"rotated": false,
	"trimmed": true,
	"spriteSourceSize": {"x":1,"y":1,"w":86,"h":86},
	"sourceSize": {"w":88,"h":88}
},
"F_5":
{
	"frame": {"x":1930,"y":187,"w":88,"h":88},
	"rotated": false,
	"trimmed": false,
	"spriteSourceSize": {"x":0,"y":0,"w":88,"h":88},
	"sourceSize": {"w":88,"h":88}
},
"gold_city_back0X25":
{
	"frame": {"x":1872,"y":1376,"w":136,"h":168},
	"rotated": false,
	"trimmed": false,
	"spriteSourceSize": {"x":0,"y":0,"w":136,"h":168},
	"sourceSize": {"w":136,"h":168}
},
"green_blink_10001":
{
	"frame": {"x":1813,"y":1153,"w":3,"h":3},
	"rotated": false,
	"trimmed": true,
	"spriteSourceSize": {"x":0,"y":0,"w":3,"h":3},
	"sourceSize": {"w":43,"h":57}
},
"green_blink_10002":
{
	"frame": {"x":1813,"y":1153,"w":3,"h":3},
	"rotated": false,
	"trimmed": true,
	"spriteSourceSize": {"x":0,"y":0,"w":3,"h":3},
	"sourceSize": {"w":43,"h":57}
},
"green_blink_10003":
{
	"frame": {"x":1813,"y":1153,"w":3,"h":3},
	"rotated": false,
	"trimmed": true,
	"spriteSourceSize": {"x":0,"y":0,"w":3,"h":3},
	"sourceSize": {"w":43,"h":57}
},
"green_blink_10004":
{
	"frame": {"x":1813,"y":1153,"w":3,"h":3},
	"rotated": false,
	"trimmed": true,
	"spriteSourceSize": {"x":0,"y":0,"w":3,"h":3},
	"sourceSize": {"w":43,"h":57}
},
"green_blink_10005":
{
	"frame": {"x":1813,"y":1153,"w":3,"h":3},
	"rotated": false,
	"trimmed": true,
	"spriteSourceSize": {"x":0,"y":0,"w":3,"h":3},
	"sourceSize": {"w":43,"h":57}
},
"green_blink_10006":
{
	"frame": {"x":1813,"y":1153,"w":3,"h":3},
	"rotated": false,
	"trimmed": true,
	"spriteSourceSize": {"x":0,"y":0,"w":3,"h":3},
	"sourceSize": {"w":43,"h":57}
},
"green_blink_10007":
{
	"frame": {"x":1983,"y":580,"w":17,"h":17},
	"rotated": false,
	"trimmed": true,
	"spriteSourceSize": {"x":0,"y":0,"w":17,"h":17},
	"sourceSize": {"w":43,"h":57}
},
"green_blink_10008":
{
	"frame": {"x":901,"y":863,"w":28,"h":28},
	"rotated": false,
	"trimmed": true,
	"spriteSourceSize": {"x":0,"y":0,"w":28,"h":28},
	"sourceSize": {"w":43,"h":57}
},
"green_blink_10009":
{
	"frame": {"x":1417,"y":2003,"w":34,"h":38},
	"rotated": false,
	"trimmed": true,
	"spriteSourceSize": {"x":0,"y":0,"w":34,"h":38},
	"sourceSize": {"w":43,"h":57}
},
"green_blink_10010":
{
	"frame": {"x":1775,"y":1947,"w":40,"h":47},
	"rotated": false,
	"trimmed": true,
	"spriteSourceSize": {"x":0,"y":0,"w":40,"h":47},
	"sourceSize": {"w":43,"h":57}
},
"green_blink_10011":
{
	"frame": {"x":1730,"y":1947,"w":43,"h":52},
	"rotated": false,
	"trimmed": true,
	"spriteSourceSize": {"x":0,"y":0,"w":43,"h":52},
	"sourceSize": {"w":43,"h":57}
},
"green_blink_10012":
{
	"frame": {"x":1585,"y":1888,"w":43,"h":57},
	"rotated": false,
	"trimmed": false,
	"spriteSourceSize": {"x":0,"y":0,"w":43,"h":57},
	"sourceSize": {"w":43,"h":57}
},
"green_blink_10013":
{
	"frame": {"x":1605,"y":1828,"w":43,"h":57},
	"rotated": false,
	"trimmed": false,
	"spriteSourceSize": {"x":0,"y":0,"w":43,"h":57},
	"sourceSize": {"w":43,"h":57}
},
"green_blink_10014":
{
	"frame": {"x":569,"y":1153,"w":43,"h":56},
	"rotated": false,
	"trimmed": true,
	"spriteSourceSize": {"x":0,"y":1,"w":43,"h":56},
	"sourceSize": {"w":43,"h":57}
},
"green_blink_10015":
{
	"frame": {"x":1635,"y":1993,"w":43,"h":51},
	"rotated": false,
	"trimmed": true,
	"spriteSourceSize": {"x":0,"y":6,"w":43,"h":51},
	"sourceSize": {"w":43,"h":57}
},
"green_blink_10016":
{
	"frame": {"x":1785,"y":1892,"w":39,"h":46},
	"rotated": false,
	"trimmed": true,
	"spriteSourceSize": {"x":4,"y":11,"w":39,"h":46},
	"sourceSize": {"w":43,"h":57}
},
"green_blink_10017":
{
	"frame": {"x":1453,"y":2003,"w":34,"h":37},
	"rotated": false,
	"trimmed": true,
	"spriteSourceSize": {"x":9,"y":20,"w":34,"h":37},
	"sourceSize": {"w":43,"h":57}
},
"green_blink_10018":
{
	"frame": {"x":1731,"y":1347,"w":27,"h":27},
	"rotated": false,
	"trimmed": true,
	"spriteSourceSize": {"x":16,"y":30,"w":27,"h":27},
	"sourceSize": {"w":43,"h":57}
},
"green_blink_10019":
{
	"frame": {"x":802,"y":1658,"w":16,"h":16},
	"rotated": false,
	"trimmed": true,
	"spriteSourceSize": {"x":27,"y":41,"w":16,"h":16},
	"sourceSize": {"w":43,"h":57}
},
"green_blink_10020":
{
	"frame": {"x":1813,"y":1153,"w":3,"h":3},
	"rotated": false,
	"trimmed": true,
	"spriteSourceSize": {"x":0,"y":0,"w":3,"h":3},
	"sourceSize": {"w":43,"h":57}
},
"green_blink_10021":
{
	"frame": {"x":1813,"y":1153,"w":3,"h":3},
	"rotated": false,
	"trimmed": true,
	"spriteSourceSize": {"x":0,"y":0,"w":3,"h":3},
	"sourceSize": {"w":43,"h":57}
},
"green_blink_10022":
{
	"frame": {"x":1813,"y":1153,"w":3,"h":3},
	"rotated": false,
	"trimmed": true,
	"spriteSourceSize": {"x":0,"y":0,"w":3,"h":3},
	"sourceSize": {"w":43,"h":57}
},
"green_blink_10023":
{
	"frame": {"x":1813,"y":1153,"w":3,"h":3},
	"rotated": false,
	"trimmed": true,
	"spriteSourceSize": {"x":0,"y":0,"w":3,"h":3},
	"sourceSize": {"w":43,"h":57}
},
"green_blink_10024":
{
	"frame": {"x":1813,"y":1153,"w":3,"h":3},
	"rotated": false,
	"trimmed": true,
	"spriteSourceSize": {"x":0,"y":0,"w":3,"h":3},
	"sourceSize": {"w":43,"h":57}
},
"green_blink_10025":
{
	"frame": {"x":1813,"y":1153,"w":3,"h":3},
	"rotated": false,
	"trimmed": true,
	"spriteSourceSize": {"x":0,"y":0,"w":3,"h":3},
	"sourceSize": {"w":43,"h":57}
},
"image_1":
{
	"frame": {"x":1959,"y":739,"w":65,"h":46},
	"rotated": false,
	"trimmed": true,
	"spriteSourceSize": {"x":55,"y":129,"w":65,"h":46},
	"sourceSize": {"w":175,"h":175}
},
"image_2":
{
	"frame": {"x":1826,"y":1821,"w":77,"h":60},
	"rotated": false,
	"trimmed": true,
	"spriteSourceSize": {"x":49,"y":115,"w":77,"h":60},
	"sourceSize": {"w":175,"h":175}
},
"image_3":
{
	"frame": {"x":1907,"y":1722,"w":85,"h":71},
	"rotated": false,
	"trimmed": true,
	"spriteSourceSize": {"x":45,"y":104,"w":85,"h":71},
	"sourceSize": {"w":175,"h":175}
},
"image_4":
{
	"frame": {"x":859,"y":1731,"w":89,"h":77},
	"rotated": false,
	"trimmed": true,
	"spriteSourceSize": {"x":43,"y":98,"w":89,"h":77},
	"sourceSize": {"w":175,"h":175}
},
"image_5":
{
	"frame": {"x":1930,"y":365,"w":87,"h":81},
	"rotated": false,
	"trimmed": true,
	"spriteSourceSize": {"x":44,"y":94,"w":87,"h":81},
	"sourceSize": {"w":175,"h":175}
},
"image_6":
{
	"frame": {"x":1745,"y":1731,"w":84,"h":82},
	"rotated": false,
	"trimmed": true,
	"spriteSourceSize": {"x":45,"y":88,"w":84,"h":82},
	"sourceSize": {"w":175,"h":175}
},
"image_7":
{
	"frame": {"x":1930,"y":448,"w":83,"h":84},
	"rotated": false,
	"trimmed": true,
	"spriteSourceSize": {"x":46,"y":81,"w":83,"h":84},
	"sourceSize": {"w":175,"h":175}
},
"image_8":
{
	"frame": {"x":1745,"y":1815,"w":79,"h":75},
	"rotated": false,
	"trimmed": true,
	"spriteSourceSize": {"x":48,"y":80,"w":79,"h":75},
	"sourceSize": {"w":175,"h":175}
},
"image_9":
{
	"frame": {"x":1075,"y":1937,"w":72,"h":73},
	"rotated": false,
	"trimmed": true,
	"spriteSourceSize": {"x":52,"y":75,"w":72,"h":73},
	"sourceSize": {"w":175,"h":175}
},
"image_10":
{
	"frame": {"x":1486,"y":1699,"w":131,"h":127},
	"rotated": false,
	"trimmed": true,
	"spriteSourceSize": {"x":23,"y":18,"w":131,"h":127},
	"sourceSize": {"w":175,"h":175}
},
"image_11":
{
	"frame": {"x":1527,"y":1004,"w":152,"h":150},
	"rotated": false,
	"trimmed": true,
	"spriteSourceSize": {"x":12,"y":7,"w":152,"h":150},
	"sourceSize": {"w":175,"h":175}
},
"image_12":
{
	"frame": {"x":1170,"y":1552,"w":172,"h":167},
	"rotated": false,
	"trimmed": true,
	"spriteSourceSize": {"x":2,"y":0,"w":172,"h":167},
	"sourceSize": {"w":175,"h":175}
},
"image_13":
{
	"frame": {"x":1170,"y":1375,"w":175,"h":175},
	"rotated": false,
	"trimmed": false,
	"spriteSourceSize": {"x":0,"y":0,"w":175,"h":175},
	"sourceSize": {"w":175,"h":175}
},
"image_14":
{
	"frame": {"x":1813,"y":1199,"w":175,"h":175},
	"rotated": false,
	"trimmed": false,
	"spriteSourceSize": {"x":0,"y":0,"w":175,"h":175},
	"sourceSize": {"w":175,"h":175}
},
"image_15":
{
	"frame": {"x":482,"y":1867,"w":175,"h":175},
	"rotated": false,
	"trimmed": false,
	"spriteSourceSize": {"x":0,"y":0,"w":175,"h":175},
	"sourceSize": {"w":175,"h":175}
},
"image_16":
{
	"frame": {"x":971,"y":1577,"w":175,"h":175},
	"rotated": false,
	"trimmed": false,
	"spriteSourceSize": {"x":0,"y":0,"w":175,"h":175},
	"sourceSize": {"w":175,"h":175}
},
"image_17":
{
	"frame": {"x":682,"y":1676,"w":175,"h":175},
	"rotated": false,
	"trimmed": false,
	"spriteSourceSize": {"x":0,"y":0,"w":175,"h":175},
	"sourceSize": {"w":175,"h":175}
},
"image_18":
{
	"frame": {"x":1347,"y":1375,"w":175,"h":175},
	"rotated": false,
	"trimmed": false,
	"spriteSourceSize": {"x":0,"y":0,"w":175,"h":175},
	"sourceSize": {"w":175,"h":175}
},
"image_19":
{
	"frame": {"x":1524,"y":1374,"w":175,"h":175},
	"rotated": false,
	"trimmed": false,
	"spriteSourceSize": {"x":0,"y":0,"w":175,"h":175},
	"sourceSize": {"w":175,"h":175}
},
"light_line_10001":
{
	"frame": {"x":1328,"y":2003,"w":45,"h":39},
	"rotated": false,
	"trimmed": true,
	"spriteSourceSize": {"x":3,"y":21,"w":45,"h":39},
	"sourceSize": {"w":195,"h":78}
},
"light_line_10002":
{
	"frame": {"x":1270,"y":1990,"w":56,"h":40},
	"rotated": false,
	"trimmed": true,
	"spriteSourceSize": {"x":4,"y":22,"w":56,"h":40},
	"sourceSize": {"w":195,"h":78}
},
"light_line_10003":
{
	"frame": {"x":1198,"y":1990,"w":70,"h":39},
	"rotated": false,
	"trimmed": true,
	"spriteSourceSize": {"x":4,"y":22,"w":70,"h":39},
	"sourceSize": {"w":195,"h":78}
},
"light_line_10004":
{
	"frame": {"x":841,"y":1853,"w":80,"h":38},
	"rotated": false,
	"trimmed": true,
	"spriteSourceSize": {"x":5,"y":22,"w":80,"h":38},
	"sourceSize": {"w":195,"h":78}
},
"light_line_10005":
{
	"frame": {"x":763,"y":1617,"w":93,"h":39},
	"rotated": false,
	"trimmed": true,
	"spriteSourceSize": {"x":6,"y":21,"w":93,"h":39},
	"sourceSize": {"w":195,"h":78}
},
"light_line_10006":
{
	"frame": {"x":1757,"y":1689,"w":102,"h":40},
	"rotated": false,
	"trimmed": true,
	"spriteSourceSize": {"x":7,"y":21,"w":102,"h":40},
	"sourceSize": {"w":195,"h":78}
},
"light_line_10007":
{
	"frame": {"x":1892,"y":1681,"w":109,"h":39},
	"rotated": false,
	"trimmed": true,
	"spriteSourceSize": {"x":7,"y":21,"w":109,"h":39},
	"sourceSize": {"w":195,"h":78}
},
"light_line_10008":
{
	"frame": {"x":1681,"y":1308,"w":127,"h":37},
	"rotated": false,
	"trimmed": true,
	"spriteSourceSize": {"x":8,"y":21,"w":127,"h":37},
	"sourceSize": {"w":195,"h":78}
},
"light_line_10009":
{
	"frame": {"x":1329,"y":1872,"w":133,"h":38},
	"rotated": false,
	"trimmed": true,
	"spriteSourceSize": {"x":8,"y":21,"w":133,"h":38},
	"sourceSize": {"w":195,"h":78}
},
"light_line_10010":
{
	"frame": {"x":1316,"y":1832,"w":145,"h":38},
	"rotated": false,
	"trimmed": true,
	"spriteSourceSize": {"x":9,"y":21,"w":145,"h":38},
	"sourceSize": {"w":195,"h":78}
},
"light_line_10011":
{
	"frame": {"x":682,"y":1853,"w":157,"h":38},
	"rotated": false,
	"trimmed": true,
	"spriteSourceSize": {"x":10,"y":20,"w":157,"h":38},
	"sourceSize": {"w":195,"h":78}
},
"light_line_10012":
{
	"frame": {"x":950,"y":1754,"w":155,"h":35},
	"rotated": false,
	"trimmed": true,
	"spriteSourceSize": {"x":13,"y":21,"w":155,"h":35},
	"sourceSize": {"w":195,"h":78}
},
"light_line_10013":
{
	"frame": {"x":1148,"y":1721,"w":157,"h":33},
	"rotated": false,
	"trimmed": true,
	"spriteSourceSize": {"x":13,"y":22,"w":157,"h":33},
	"sourceSize": {"w":195,"h":78}
},
"light_line_10014":
{
	"frame": {"x":942,"y":2012,"w":149,"h":32},
	"rotated": false,
	"trimmed": true,
	"spriteSourceSize": {"x":22,"y":22,"w":149,"h":32},
	"sourceSize": {"w":195,"h":78}
},
"light_line_10015":
{
	"frame": {"x":1329,"y":1912,"w":150,"h":30},
	"rotated": false,
	"trimmed": true,
	"spriteSourceSize": {"x":23,"y":24,"w":150,"h":30},
	"sourceSize": {"w":195,"h":78}
},
"light_line_10016":
{
	"frame": {"x":1329,"y":1944,"w":150,"h":29},
	"rotated": false,
	"trimmed": true,
	"spriteSourceSize": {"x":25,"y":24,"w":150,"h":29},
	"sourceSize": {"w":195,"h":78}
},
"light_line_10017":
{
	"frame": {"x":1431,"y":917,"w":149,"h":28},
	"rotated": false,
	"trimmed": true,
	"spriteSourceSize": {"x":27,"y":25,"w":149,"h":28},
	"sourceSize": {"w":195,"h":78}
},
"light_line_10018":
{
	"frame": {"x":1329,"y":1975,"w":150,"h":26},
	"rotated": false,
	"trimmed": true,
	"spriteSourceSize": {"x":28,"y":26,"w":150,"h":26},
	"sourceSize": {"w":195,"h":78}
},
"light_line_10019":
{
	"frame": {"x":950,"y":1791,"w":151,"h":26},
	"rotated": false,
	"trimmed": true,
	"spriteSourceSize": {"x":29,"y":27,"w":151,"h":26},
	"sourceSize": {"w":195,"h":78}
},
"light_line_10020":
{
	"frame": {"x":1581,"y":1341,"w":97,"h":20},
	"rotated": false,
	"trimmed": true,
	"spriteSourceSize": {"x":84,"y":28,"w":97,"h":20},
	"sourceSize": {"w":195,"h":78}
},
"light_line_10021":
{
	"frame": {"x":1907,"y":1795,"w":90,"h":19},
	"rotated": false,
	"trimmed": true,
	"spriteSourceSize": {"x":93,"y":28,"w":90,"h":19},
	"sourceSize": {"w":195,"h":78}
},
"light_line_10022":
{
	"frame": {"x":710,"y":1658,"w":90,"h":16},
	"rotated": false,
	"trimmed": true,
	"spriteSourceSize": {"x":95,"y":28,"w":90,"h":16},
	"sourceSize": {"w":195,"h":78}
},
"lucksherry_sunray":
{
	"frame": {"x":675,"y":952,"w":257,"h":257},
	"rotated": false,
	"trimmed": false,
	"spriteSourceSize": {"x":0,"y":0,"w":257,"h":257},
	"sourceSize": {"w":257,"h":257}
},
"particle":
{
	"frame": {"x":614,"y":584,"w":59,"h":55},
	"rotated": false,
	"trimmed": true,
	"spriteSourceSize": {"x":3,"y":5,"w":59,"h":55},
	"sourceSize": {"w":64,"h":64}
},
"particle_blue":
{
	"frame": {"x":260,"y":1535,"w":23,"h":22},
	"rotated": false,
	"trimmed": false,
	"spriteSourceSize": {"x":0,"y":0,"w":23,"h":22},
	"sourceSize": {"w":23,"h":22}
},
"particle_green":
{
	"frame": {"x":1129,"y":1158,"w":22,"h":22},
	"rotated": false,
	"trimmed": false,
	"spriteSourceSize": {"x":0,"y":0,"w":22,"h":22},
	"sourceSize": {"w":22,"h":22}
},
"particle_pink":
{
	"frame": {"x":659,"y":1867,"w":21,"h":21},
	"rotated": false,
	"trimmed": false,
	"spriteSourceSize": {"x":0,"y":0,"w":21,"h":21},
	"sourceSize": {"w":21,"h":21}
},
"particle_red":
{
	"frame": {"x":1170,"y":1756,"w":22,"h":22},
	"rotated": false,
	"trimmed": false,
	"spriteSourceSize": {"x":0,"y":0,"w":22,"h":22},
	"sourceSize": {"w":22,"h":22}
},
"particle_yellow":
{
	"frame": {"x":1148,"y":1577,"w":20,"h":20},
	"rotated": false,
	"trimmed": false,
	"spriteSourceSize": {"x":0,"y":0,"w":20,"h":20},
	"sourceSize": {"w":20,"h":20}
},
"pink_blink_10001":
{
	"frame": {"x":1813,"y":1153,"w":3,"h":3},
	"rotated": false,
	"trimmed": true,
	"spriteSourceSize": {"x":0,"y":0,"w":3,"h":3},
	"sourceSize": {"w":61,"h":61}
},
"pink_blink_10002":
{
	"frame": {"x":1813,"y":1153,"w":3,"h":3},
	"rotated": false,
	"trimmed": true,
	"spriteSourceSize": {"x":0,"y":0,"w":3,"h":3},
	"sourceSize": {"w":61,"h":61}
},
"pink_blink_10003":
{
	"frame": {"x":1813,"y":1153,"w":3,"h":3},
	"rotated": false,
	"trimmed": true,
	"spriteSourceSize": {"x":0,"y":0,"w":3,"h":3},
	"sourceSize": {"w":61,"h":61}
},
"pink_blink_10004":
{
	"frame": {"x":1813,"y":1153,"w":3,"h":3},
	"rotated": false,
	"trimmed": true,
	"spriteSourceSize": {"x":0,"y":0,"w":3,"h":3},
	"sourceSize": {"w":61,"h":61}
},
"pink_blink_10005":
{
	"frame": {"x":1813,"y":1153,"w":3,"h":3},
	"rotated": false,
	"trimmed": true,
	"spriteSourceSize": {"x":0,"y":0,"w":3,"h":3},
	"sourceSize": {"w":61,"h":61}
},
"pink_blink_10006":
{
	"frame": {"x":1813,"y":1153,"w":3,"h":3},
	"rotated": false,
	"trimmed": true,
	"spriteSourceSize": {"x":0,"y":0,"w":3,"h":3},
	"sourceSize": {"w":61,"h":61}
},
"pink_blink_10007":
{
	"frame": {"x":1813,"y":1153,"w":3,"h":3},
	"rotated": false,
	"trimmed": true,
	"spriteSourceSize": {"x":0,"y":0,"w":3,"h":3},
	"sourceSize": {"w":61,"h":61}
},
"pink_blink_10008":
{
	"frame": {"x":1990,"y":1317,"w":37,"h":35},
	"rotated": false,
	"trimmed": true,
	"spriteSourceSize": {"x":0,"y":1,"w":37,"h":35},
	"sourceSize": {"w":61,"h":61}
},
"pink_blink_10009":
{
	"frame": {"x":1489,"y":2002,"w":42,"h":42},
	"rotated": false,
	"trimmed": true,
	"spriteSourceSize": {"x":0,"y":0,"w":42,"h":42},
	"sourceSize": {"w":61,"h":61}
},
"pink_blink_10010":
{
	"frame": {"x":1776,"y":1996,"w":47,"h":47},
	"rotated": false,
	"trimmed": true,
	"spriteSourceSize": {"x":0,"y":0,"w":47,"h":47},
	"sourceSize": {"w":61,"h":61}
},
"pink_blink_10011":
{
	"frame": {"x":710,"y":1465,"w":52,"h":52},
	"rotated": false,
	"trimmed": true,
	"spriteSourceSize": {"x":1,"y":1,"w":52,"h":52},
	"sourceSize": {"w":61,"h":61}
},
"pink_blink_10012":
{
	"frame": {"x":1486,"y":1828,"w":58,"h":58},
	"rotated": false,
	"trimmed": true,
	"spriteSourceSize": {"x":0,"y":0,"w":58,"h":58},
	"sourceSize": {"w":61,"h":61}
},
"pink_blink_10013":
{
	"frame": {"x":1107,"y":1756,"w":61,"h":61},
	"rotated": false,
	"trimmed": false,
	"spriteSourceSize": {"x":0,"y":0,"w":61,"h":61},
	"sourceSize": {"w":61,"h":61}
},
"pink_blink_10014":
{
	"frame": {"x":1903,"y":739,"w":54,"h":54},
	"rotated": false,
	"trimmed": true,
	"spriteSourceSize": {"x":6,"y":6,"w":54,"h":54},
	"sourceSize": {"w":61,"h":61}
},
"pink_blink_10015":
{
	"frame": {"x":1149,"y":1937,"w":50,"h":50},
	"rotated": false,
	"trimmed": true,
	"spriteSourceSize": {"x":11,"y":11,"w":50,"h":50},
	"sourceSize": {"w":61,"h":61}
},
"pink_blink_10016":
{
	"frame": {"x":1983,"y":534,"w":44,"h":44},
	"rotated": false,
	"trimmed": true,
	"spriteSourceSize": {"x":17,"y":17,"w":44,"h":44},
	"sourceSize": {"w":61,"h":61}
},
"pink_blink_10017":
{
	"frame": {"x":902,"y":1810,"w":38,"h":38},
	"rotated": false,
	"trimmed": true,
	"spriteSourceSize": {"x":22,"y":22,"w":38,"h":38},
	"sourceSize": {"w":61,"h":61}
},
"pink_blink_10018":
{
	"frame": {"x":1994,"y":1722,"w":33,"h":33},
	"rotated": false,
	"trimmed": true,
	"spriteSourceSize": {"x":28,"y":28,"w":33,"h":33},
	"sourceSize": {"w":61,"h":61}
},
"pink_blink_10019":
{
	"frame": {"x":1813,"y":1153,"w":3,"h":3},
	"rotated": false,
	"trimmed": true,
	"spriteSourceSize": {"x":0,"y":0,"w":3,"h":3},
	"sourceSize": {"w":61,"h":61}
},
"pink_blink_10020":
{
	"frame": {"x":1813,"y":1153,"w":3,"h":3},
	"rotated": false,
	"trimmed": true,
	"spriteSourceSize": {"x":0,"y":0,"w":3,"h":3},
	"sourceSize": {"w":61,"h":61}
},
"pink_blink_10021":
{
	"frame": {"x":1813,"y":1153,"w":3,"h":3},
	"rotated": false,
	"trimmed": true,
	"spriteSourceSize": {"x":0,"y":0,"w":3,"h":3},
	"sourceSize": {"w":61,"h":61}
},
"pink_blink_10022":
{
	"frame": {"x":1813,"y":1153,"w":3,"h":3},
	"rotated": false,
	"trimmed": true,
	"spriteSourceSize": {"x":0,"y":0,"w":3,"h":3},
	"sourceSize": {"w":61,"h":61}
},
"pink_blink_10023":
{
	"frame": {"x":1813,"y":1153,"w":3,"h":3},
	"rotated": false,
	"trimmed": true,
	"spriteSourceSize": {"x":0,"y":0,"w":3,"h":3},
	"sourceSize": {"w":61,"h":61}
},
"pink_blink_10024":
{
	"frame": {"x":1813,"y":1153,"w":3,"h":3},
	"rotated": false,
	"trimmed": true,
	"spriteSourceSize": {"x":0,"y":0,"w":3,"h":3},
	"sourceSize": {"w":61,"h":61}
},
"pink_blink_10025":
{
	"frame": {"x":1813,"y":1153,"w":3,"h":3},
	"rotated": false,
	"trimmed": true,
	"spriteSourceSize": {"x":0,"y":0,"w":3,"h":3},
	"sourceSize": {"w":61,"h":61}
},
"ramk_ld":
{
	"frame": {"x":285,"y":1153,"w":282,"h":310},
	"rotated": false,
	"trimmed": false,
	"spriteSourceSize": {"x":0,"y":0,"w":282,"h":310},
	"sourceSize": {"w":282,"h":310}
},
"ramk_lt":
{
	"frame": {"x":1,"y":1153,"w":282,"h":380},
	"rotated": false,
	"trimmed": false,
	"spriteSourceSize": {"x":0,"y":0,"w":282,"h":380},
	"sourceSize": {"w":282,"h":380}
},
"ramk_rd":
{
	"frame": {"x":934,"y":863,"w":193,"h":320},
	"rotated": false,
	"trimmed": false,
	"spriteSourceSize": {"x":0,"y":0,"w":193,"h":320},
	"sourceSize": {"w":193,"h":320}
},
"ramk_rt":
{
	"frame": {"x":569,"y":1211,"w":193,"h":252},
	"rotated": false,
	"trimmed": false,
	"spriteSourceSize": {"x":0,"y":0,"w":193,"h":252},
	"sourceSize": {"w":193,"h":252}
},
"red_blink_10001":
{
	"frame": {"x":1813,"y":1153,"w":3,"h":3},
	"rotated": false,
	"trimmed": true,
	"spriteSourceSize": {"x":0,"y":0,"w":3,"h":3},
	"sourceSize": {"w":69,"h":69}
},
"red_blink_10002":
{
	"frame": {"x":1813,"y":1153,"w":3,"h":3},
	"rotated": false,
	"trimmed": true,
	"spriteSourceSize": {"x":0,"y":0,"w":3,"h":3},
	"sourceSize": {"w":69,"h":69}
},
"red_blink_10003":
{
	"frame": {"x":1813,"y":1153,"w":3,"h":3},
	"rotated": false,
	"trimmed": true,
	"spriteSourceSize": {"x":0,"y":0,"w":3,"h":3},
	"sourceSize": {"w":69,"h":69}
},
"red_blink_10004":
{
	"frame": {"x":1813,"y":1153,"w":3,"h":3},
	"rotated": false,
	"trimmed": true,
	"spriteSourceSize": {"x":0,"y":0,"w":3,"h":3},
	"sourceSize": {"w":69,"h":69}
},
"red_blink_10005":
{
	"frame": {"x":1813,"y":1153,"w":3,"h":3},
	"rotated": false,
	"trimmed": true,
	"spriteSourceSize": {"x":0,"y":0,"w":3,"h":3},
	"sourceSize": {"w":69,"h":69}
},
"red_blink_10006":
{
	"frame": {"x":1581,"y":1363,"w":8,"h":9},
	"rotated": false,
	"trimmed": true,
	"spriteSourceSize": {"x":9,"y":8,"w":8,"h":9},
	"sourceSize": {"w":69,"h":69}
},
"red_blink_10007":
{
	"frame": {"x":1990,"y":1239,"w":37,"h":37},
	"rotated": false,
	"trimmed": true,
	"spriteSourceSize": {"x":0,"y":0,"w":37,"h":37},
	"sourceSize": {"w":69,"h":69}
},
"red_blink_10008":
{
	"frame": {"x":859,"y":1810,"w":41,"h":41},
	"rotated": false,
	"trimmed": true,
	"spriteSourceSize": {"x":2,"y":2,"w":41,"h":41},
	"sourceSize": {"w":69,"h":69}
},
"red_blink_10009":
{
	"frame": {"x":1481,"y":1951,"w":50,"h":49},
	"rotated": false,
	"trimmed": true,
	"spriteSourceSize": {"x":0,"y":0,"w":50,"h":49},
	"sourceSize": {"w":69,"h":69}
},
"red_blink_10010":
{
	"frame": {"x":1905,"y":1821,"w":60,"h":60},
	"rotated": false,
	"trimmed": true,
	"spriteSourceSize": {"x":0,"y":0,"w":60,"h":60},
	"sourceSize": {"w":69,"h":69}
},
"red_blink_10011":
{
	"frame": {"x":1546,"y":1828,"w":57,"h":58},
	"rotated": false,
	"trimmed": true,
	"spriteSourceSize": {"x":3,"y":3,"w":57,"h":58},
	"sourceSize": {"w":69,"h":69}
},
"red_blink_10012":
{
	"frame": {"x":1963,"y":1883,"w":64,"h":64},
	"rotated": false,
	"trimmed": true,
	"spriteSourceSize": {"x":0,"y":0,"w":64,"h":64},
	"sourceSize": {"w":69,"h":69}
},
"red_blink_10013":
{
	"frame": {"x":1826,"y":1883,"w":67,"h":67},
	"rotated": false,
	"trimmed": true,
	"spriteSourceSize": {"x":2,"y":2,"w":67,"h":67},
	"sourceSize": {"w":69,"h":69}
},
"red_blink_10014":
{
	"frame": {"x":1963,"y":1949,"w":60,"h":60},
	"rotated": false,
	"trimmed": true,
	"spriteSourceSize": {"x":7,"y":7,"w":60,"h":60},
	"sourceSize": {"w":69,"h":69}
},
"red_blink_10015":
{
	"frame": {"x":1967,"y":1816,"w":60,"h":61},
	"rotated": false,
	"trimmed": true,
	"spriteSourceSize": {"x":9,"y":8,"w":60,"h":61},
	"sourceSize": {"w":69,"h":69}
},
"red_blink_10016":
{
	"frame": {"x":1527,"y":947,"w":56,"h":55},
	"rotated": false,
	"trimmed": true,
	"spriteSourceSize": {"x":13,"y":14,"w":56,"h":55},
	"sourceSize": {"w":69,"h":69}
},
"red_blink_10017":
{
	"frame": {"x":1730,"y":2001,"w":44,"h":43},
	"rotated": false,
	"trimmed": true,
	"spriteSourceSize": {"x":23,"y":23,"w":44,"h":43},
	"sourceSize": {"w":69,"h":69}
},
"red_blink_10018":
{
	"frame": {"x":1375,"y":2003,"w":40,"h":40},
	"rotated": false,
	"trimmed": true,
	"spriteSourceSize": {"x":29,"y":29,"w":40,"h":40},
	"sourceSize": {"w":69,"h":69}
},
"red_blink_10019":
{
	"frame": {"x":950,"y":1731,"w":14,"h":14},
	"rotated": false,
	"trimmed": true,
	"spriteSourceSize": {"x":46,"y":47,"w":14,"h":14},
	"sourceSize": {"w":69,"h":69}
},
"red_blink_10020":
{
	"frame": {"x":1907,"y":1816,"w":4,"h":3},
	"rotated": false,
	"trimmed": true,
	"spriteSourceSize": {"x":56,"y":58,"w":4,"h":3},
	"sourceSize": {"w":69,"h":69}
},
"red_blink_10021":
{
	"frame": {"x":1813,"y":1153,"w":3,"h":3},
	"rotated": false,
	"trimmed": true,
	"spriteSourceSize": {"x":0,"y":0,"w":3,"h":3},
	"sourceSize": {"w":69,"h":69}
},
"red_blink_10022":
{
	"frame": {"x":1813,"y":1153,"w":3,"h":3},
	"rotated": false,
	"trimmed": true,
	"spriteSourceSize": {"x":0,"y":0,"w":3,"h":3},
	"sourceSize": {"w":69,"h":69}
},
"red_blink_10023":
{
	"frame": {"x":1813,"y":1153,"w":3,"h":3},
	"rotated": false,
	"trimmed": true,
	"spriteSourceSize": {"x":0,"y":0,"w":3,"h":3},
	"sourceSize": {"w":69,"h":69}
},
"red_blink_10024":
{
	"frame": {"x":1813,"y":1153,"w":3,"h":3},
	"rotated": false,
	"trimmed": true,
	"spriteSourceSize": {"x":0,"y":0,"w":3,"h":3},
	"sourceSize": {"w":69,"h":69}
},
"red_blink_10025":
{
	"frame": {"x":1813,"y":1153,"w":3,"h":3},
	"rotated": false,
	"trimmed": true,
	"spriteSourceSize": {"x":0,"y":0,"w":3,"h":3},
	"sourceSize": {"w":69,"h":69}
},
"remove_anim_10001":
{
	"frame": {"x":1201,"y":1874,"w":126,"h":114},
	"rotated": false,
	"trimmed": true,
	"spriteSourceSize": {"x":7,"y":15,"w":126,"h":114},
	"sourceSize": {"w":149,"h":155}
},
"remove_anim_10002":
{
	"frame": {"x":942,"y":1819,"w":131,"h":117},
	"rotated": false,
	"trimmed": true,
	"spriteSourceSize": {"x":16,"y":18,"w":131,"h":117},
	"sourceSize": {"w":149,"h":155}
},
"remove_anim_10003":
{
	"frame": {"x":1075,"y":1819,"w":124,"h":116},
	"rotated": false,
	"trimmed": true,
	"spriteSourceSize": {"x":20,"y":18,"w":124,"h":116},
	"sourceSize": {"w":149,"h":155}
},
"remove_anim_10004":
{
	"frame": {"x":1344,"y":1698,"w":140,"h":132},
	"rotated": false,
	"trimmed": true,
	"spriteSourceSize": {"x":4,"y":23,"w":140,"h":132},
	"sourceSize": {"w":149,"h":155}
},
"remove_anim_10005":
{
	"frame": {"x":1757,"y":1548,"w":133,"h":139},
	"rotated": false,
	"trimmed": true,
	"spriteSourceSize": {"x":7,"y":12,"w":133,"h":139},
	"sourceSize": {"w":149,"h":155}
},
"remove_anim_10006":
{
	"frame": {"x":1892,"y":1546,"w":126,"h":133},
	"rotated": false,
	"trimmed": true,
	"spriteSourceSize": {"x":10,"y":15,"w":126,"h":133},
	"sourceSize": {"w":149,"h":155}
},
"remove_anim_10007":
{
	"frame": {"x":1681,"y":1004,"w":135,"h":147},
	"rotated": false,
	"trimmed": true,
	"spriteSourceSize": {"x":12,"y":1,"w":135,"h":147},
	"sourceSize": {"w":149,"h":155}
},
"remove_anim_10008":
{
	"frame": {"x":1681,"y":1153,"w":130,"h":153},
	"rotated": false,
	"trimmed": true,
	"spriteSourceSize": {"x":12,"y":0,"w":130,"h":153},
	"sourceSize": {"w":149,"h":155}
},
"remove_anim_10009":
{
	"frame": {"x":1344,"y":1552,"w":140,"h":144},
	"rotated": false,
	"trimmed": true,
	"spriteSourceSize": {"x":0,"y":4,"w":140,"h":144},
	"sourceSize": {"w":149,"h":155}
},
"remove_anim_10010":
{
	"frame": {"x":659,"y":1893,"w":142,"h":136},
	"rotated": false,
	"trimmed": true,
	"spriteSourceSize": {"x":7,"y":7,"w":142,"h":136},
	"sourceSize": {"w":149,"h":155}
},
"remove_anim_10011":
{
	"frame": {"x":1903,"y":599,"w":124,"h":138},
	"rotated": false,
	"trimmed": true,
	"spriteSourceSize": {"x":23,"y":4,"w":124,"h":138},
	"sourceSize": {"w":149,"h":155}
},
"remove_anim_10012":
{
	"frame": {"x":185,"y":1892,"w":142,"h":147},
	"rotated": false,
	"trimmed": true,
	"spriteSourceSize": {"x":2,"y":7,"w":142,"h":147},
	"sourceSize": {"w":149,"h":155}
},
"remove_anim_10013":
{
	"frame": {"x":1617,"y":1551,"w":138,"h":141},
	"rotated": false,
	"trimmed": true,
	"spriteSourceSize": {"x":9,"y":12,"w":138,"h":141},
	"sourceSize": {"w":149,"h":155}
},
"remove_anim_10014":
{
	"frame": {"x":803,"y":1893,"w":137,"h":137},
	"rotated": false,
	"trimmed": true,
	"spriteSourceSize": {"x":5,"y":16,"w":137,"h":137},
	"sourceSize": {"w":149,"h":155}
},
"remove_anim_10015":
{
	"frame": {"x":1486,"y":1552,"w":129,"h":145},
	"rotated": false,
	"trimmed": true,
	"spriteSourceSize": {"x":10,"y":10,"w":129,"h":145},
	"sourceSize": {"w":149,"h":155}
},
"remove_anim_10016":
{
	"frame": {"x":1619,"y":1694,"w":124,"h":130},
	"rotated": false,
	"trimmed": true,
	"spriteSourceSize": {"x":2,"y":18,"w":124,"h":130},
	"sourceSize": {"w":149,"h":155}
},
"remove_anim_10017":
{
	"frame": {"x":1201,"y":1756,"w":113,"h":116},
	"rotated": false,
	"trimmed": true,
	"spriteSourceSize": {"x":7,"y":24,"w":113,"h":116},
	"sourceSize": {"w":149,"h":155}
},
"remove_anim_10018":
{
	"frame": {"x":859,"y":1617,"w":106,"h":112},
	"rotated": false,
	"trimmed": true,
	"spriteSourceSize": {"x":12,"y":27,"w":106,"h":112},
	"sourceSize": {"w":149,"h":155}
},
"scorePlank":
{
	"frame": {"x":1214,"y":599,"w":391,"h":137},
	"rotated": false,
	"trimmed": false,
	"spriteSourceSize": {"x":0,"y":0,"w":391,"h":137},
	"sourceSize": {"w":391,"h":137}
},
"selection":
{
	"frame": {"x":1930,"y":1,"w":94,"h":94},
	"rotated": false,
	"trimmed": false,
	"spriteSourceSize": {"x":0,"y":0,"w":94,"h":94},
	"sourceSize": {"w":94,"h":94}
},
"smallHouse_end":
{
	"frame": {"x":901,"y":584,"w":311,"h":277},
	"rotated": false,
	"trimmed": false,
	"spriteSourceSize": {"x":0,"y":0,"w":311,"h":277},
	"sourceSize": {"w":311,"h":277}
},
"smallHouse_start":
{
	"frame": {"x":1607,"y":599,"w":294,"h":194},
	"rotated": false,
	"trimmed": true,
	"spriteSourceSize": {"x":17,"y":80,"w":294,"h":194},
	"sourceSize": {"w":311,"h":277}
},
"Tutorial-arrow":
{
	"frame": {"x":1581,"y":1156,"w":98,"h":183},
	"rotated": false,
	"trimmed": false,
	"spriteSourceSize": {"x":0,"y":0,"w":98,"h":183},
	"sourceSize": {"w":98,"h":183}
},
"tutorial_dedula":
{
	"frame": {"x":614,"y":1,"w":670,"h":581},
	"rotated": false,
	"trimmed": false,
	"spriteSourceSize": {"x":0,"y":0,"w":670,"h":581},
	"sourceSize": {"w":670,"h":581}
},
"tutorial_mask":
{
	"frame": {"x":942,"y":1938,"w":128,"h":72},
	"rotated": false,
	"trimmed": false,
	"spriteSourceSize": {"x":0,"y":0,"w":128,"h":72},
	"sourceSize": {"w":128,"h":72}
},
"wert_horiz_icon":
{
	"frame": {"x":1129,"y":863,"w":80,"h":80},
	"rotated": false,
	"trimmed": false,
	"spriteSourceSize": {"x":0,"y":0,"w":80,"h":80},
	"sourceSize": {"w":80,"h":80}
},
"yellow_blink_10001":
{
	"frame": {"x":1813,"y":1153,"w":3,"h":3},
	"rotated": false,
	"trimmed": true,
	"spriteSourceSize": {"x":0,"y":0,"w":3,"h":3},
	"sourceSize": {"w":53,"h":53}
},
"yellow_blink_10002":
{
	"frame": {"x":1813,"y":1153,"w":3,"h":3},
	"rotated": false,
	"trimmed": true,
	"spriteSourceSize": {"x":0,"y":0,"w":3,"h":3},
	"sourceSize": {"w":53,"h":53}
},
"yellow_blink_10003":
{
	"frame": {"x":1813,"y":1153,"w":3,"h":3},
	"rotated": false,
	"trimmed": true,
	"spriteSourceSize": {"x":0,"y":0,"w":3,"h":3},
	"sourceSize": {"w":53,"h":53}
},
"yellow_blink_10004":
{
	"frame": {"x":1813,"y":1153,"w":3,"h":3},
	"rotated": false,
	"trimmed": true,
	"spriteSourceSize": {"x":0,"y":0,"w":3,"h":3},
	"sourceSize": {"w":53,"h":53}
},
"yellow_blink_10005":
{
	"frame": {"x":1166,"y":1375,"w":2,"h":2},
	"rotated": false,
	"trimmed": true,
	"spriteSourceSize": {"x":0,"y":0,"w":2,"h":2},
	"sourceSize": {"w":53,"h":53}
},
"yellow_blink_10006":
{
	"frame": {"x":1214,"y":584,"w":13,"h":13},
	"rotated": false,
	"trimmed": true,
	"spriteSourceSize": {"x":0,"y":0,"w":13,"h":13},
	"sourceSize": {"w":53,"h":53}
},
"yellow_blink_10007":
{
	"frame": {"x":934,"y":1185,"w":24,"h":24},
	"rotated": false,
	"trimmed": true,
	"spriteSourceSize": {"x":0,"y":0,"w":24,"h":24},
	"sourceSize": {"w":53,"h":53}
},
"yellow_blink_10008":
{
	"frame": {"x":1705,"y":1826,"w":35,"h":34},
	"rotated": false,
	"trimmed": true,
	"spriteSourceSize": {"x":0,"y":0,"w":35,"h":34},
	"sourceSize": {"w":53,"h":53}
},
"yellow_blink_10009":
{
	"frame": {"x":1825,"y":1952,"w":46,"h":45},
	"rotated": false,
	"trimmed": true,
	"spriteSourceSize": {"x":0,"y":0,"w":46,"h":45},
	"sourceSize": {"w":53,"h":53}
},
"yellow_blink_10010":
{
	"frame": {"x":614,"y":1153,"w":53,"h":53},
	"rotated": false,
	"trimmed": false,
	"spriteSourceSize": {"x":0,"y":0,"w":53,"h":53},
	"sourceSize": {"w":53,"h":53}
},
"yellow_blink_10011":
{
	"frame": {"x":1650,"y":1826,"w":53,"h":53},
	"rotated": false,
	"trimmed": false,
	"spriteSourceSize": {"x":0,"y":0,"w":53,"h":53},
	"sourceSize": {"w":53,"h":53}
},
"yellow_blink_10012":
{
	"frame": {"x":1675,"y":1881,"w":53,"h":53},
	"rotated": false,
	"trimmed": false,
	"spriteSourceSize": {"x":0,"y":0,"w":53,"h":53},
	"sourceSize": {"w":53,"h":53}
},
"yellow_blink_10013":
{
	"frame": {"x":1730,"y":1892,"w":53,"h":53},
	"rotated": false,
	"trimmed": false,
	"spriteSourceSize": {"x":0,"y":0,"w":53,"h":53},
	"sourceSize": {"w":53,"h":53}
},
"yellow_blink_10014":
{
	"frame": {"x":1675,"y":1936,"w":53,"h":53},
	"rotated": false,
	"trimmed": false,
	"spriteSourceSize": {"x":0,"y":0,"w":53,"h":53},
	"sourceSize": {"w":53,"h":53}
},
"yellow_blink_10015":
{
	"frame": {"x":1533,"y":1991,"w":53,"h":53},
	"rotated": false,
	"trimmed": false,
	"spriteSourceSize": {"x":0,"y":0,"w":53,"h":53},
	"sourceSize": {"w":53,"h":53}
},
"yellow_blink_10016":
{
	"frame": {"x":1680,"y":1991,"w":48,"h":48},
	"rotated": false,
	"trimmed": true,
	"spriteSourceSize": {"x":5,"y":5,"w":48,"h":48},
	"sourceSize": {"w":53,"h":53}
},
"yellow_blink_10017":
{
	"frame": {"x":1990,"y":1278,"w":37,"h":37},
	"rotated": false,
	"trimmed": true,
	"spriteSourceSize": {"x":16,"y":16,"w":37,"h":37},
	"sourceSize": {"w":53,"h":53}
},
"yellow_blink_10018":
{
	"frame": {"x":1316,"y":1756,"w":26,"h":26},
	"rotated": false,
	"trimmed": true,
	"spriteSourceSize": {"x":27,"y":27,"w":26,"h":26},
	"sourceSize": {"w":53,"h":53}
},
"yellow_blink_10019":
{
	"frame": {"x":1582,"y":917,"w":15,"h":15},
	"rotated": false,
	"trimmed": true,
	"spriteSourceSize": {"x":38,"y":38,"w":15,"h":15},
	"sourceSize": {"w":53,"h":53}
},
"yellow_blink_10020":
{
	"frame": {"x":1785,"y":1940,"w":5,"h":5},
	"rotated": false,
	"trimmed": true,
	"spriteSourceSize": {"x":48,"y":48,"w":5,"h":5},
	"sourceSize": {"w":53,"h":53}
},
"yellow_blink_10021":
{
	"frame": {"x":1813,"y":1153,"w":3,"h":3},
	"rotated": false,
	"trimmed": true,
	"spriteSourceSize": {"x":0,"y":0,"w":3,"h":3},
	"sourceSize": {"w":53,"h":53}
},
"yellow_blink_10022":
{
	"frame": {"x":1813,"y":1153,"w":3,"h":3},
	"rotated": false,
	"trimmed": true,
	"spriteSourceSize": {"x":0,"y":0,"w":3,"h":3},
	"sourceSize": {"w":53,"h":53}
},
"yellow_blink_10023":
{
	"frame": {"x":1813,"y":1153,"w":3,"h":3},
	"rotated": false,
	"trimmed": true,
	"spriteSourceSize": {"x":0,"y":0,"w":3,"h":3},
	"sourceSize": {"w":53,"h":53}
},
"yellow_blink_10024":
{
	"frame": {"x":1813,"y":1153,"w":3,"h":3},
	"rotated": false,
	"trimmed": true,
	"spriteSourceSize": {"x":0,"y":0,"w":3,"h":3},
	"sourceSize": {"w":53,"h":53}
},
"yellow_blink_10025":
{
	"frame": {"x":1813,"y":1153,"w":3,"h":3},
	"rotated": false,
	"trimmed": true,
	"spriteSourceSize": {"x":0,"y":0,"w":3,"h":3},
	"sourceSize": {"w":53,"h":53}
}},
"meta": {
	"app": "http://www.codeandweb.com/texturepacker",
	"version": "1.0",
	"image": "atlas.png",
	"format": "RGBA8888",
	"size": {"w":2028,"h":2045},
	"scale": "1",
	"smartupdate": "$TexturePacker:SmartUpdate:8459e1764e85d751d8a0e8c897158b67:effa1dd3c995fca7f0b3b8c3fb54441d:cbce6b53f0f49e0bf15173c25c41f876$"
}
}
