﻿{"frames": {

"F_1.png":
{
	"frame": {"x":319,"y":182,"w":71,"h":75},
	"rotated": false,
	"trimmed": false,
	"spriteSourceSize": {"x":0,"y":0,"w":71,"h":75},
	"sourceSize": {"w":71,"h":75}
},
"F_2.png":
{
	"frame": {"x":464,"y":182,"w":61,"h":78},
	"rotated": false,
	"trimmed": false,
	"spriteSourceSize": {"x":0,"y":0,"w":61,"h":78},
	"sourceSize": {"w":61,"h":78}
},
"F_3.png":
{
	"frame": {"x":164,"y":182,"w":73,"h":76},
	"rotated": false,
	"trimmed": false,
	"spriteSourceSize": {"x":0,"y":0,"w":73,"h":76},
	"sourceSize": {"w":73,"h":76}
},
"F_4.png":
{
	"frame": {"x":392,"y":182,"w":70,"h":76},
	"rotated": false,
	"trimmed": false,
	"spriteSourceSize": {"x":0,"y":0,"w":70,"h":76},
	"sourceSize": {"w":70,"h":76}
},
"F_5.png":
{
	"frame": {"x":239,"y":182,"w":78,"h":71},
	"rotated": false,
	"trimmed": false,
	"spriteSourceSize": {"x":0,"y":0,"w":78,"h":71},
	"sourceSize": {"w":78,"h":71}
},
"e_1.png":
{
	"frame": {"x":969,"y":2,"w":32,"h":33},
	"rotated": false,
	"trimmed": false,
	"spriteSourceSize": {"x":0,"y":0,"w":32,"h":33},
	"sourceSize": {"w":32,"h":33}
},
"e_2.png":
{
	"frame": {"x":745,"y":112,"w":102,"h":99},
	"rotated": false,
	"trimmed": false,
	"spriteSourceSize": {"x":0,"y":0,"w":102,"h":99},
	"sourceSize": {"w":102,"h":99}
},
"e_3.png":
{
	"frame": {"x":857,"y":2,"w":110,"h":107},
	"rotated": false,
	"trimmed": false,
	"spriteSourceSize": {"x":0,"y":0,"w":110,"h":107},
	"sourceSize": {"w":110,"h":107}
},
"e_4.png":
{
	"frame": {"x":633,"y":2,"w":110,"h":109},
	"rotated": false,
	"trimmed": false,
	"spriteSourceSize": {"x":0,"y":0,"w":110,"h":109},
	"sourceSize": {"w":110,"h":109}
},
"e_5.png":
{
	"frame": {"x":745,"y":2,"w":110,"h":108},
	"rotated": false,
	"trimmed": false,
	"spriteSourceSize": {"x":0,"y":0,"w":110,"h":108},
	"sourceSize": {"w":110,"h":108}
},
"e_6.png":
{
	"frame": {"x":857,"y":111,"w":107,"h":106},
	"rotated": false,
	"trimmed": false,
	"spriteSourceSize": {"x":0,"y":0,"w":107,"h":106},
	"sourceSize": {"w":107,"h":106}
},
"e_7.png":
{
	"frame": {"x":2,"y":182,"w":89,"h":97},
	"rotated": false,
	"trimmed": false,
	"spriteSourceSize": {"x":0,"y":0,"w":89,"h":97},
	"sourceSize": {"w":89,"h":97}
},
"hand.png":
{
	"frame": {"x":93,"y":182,"w":69,"h":81},
	"rotated": false,
	"trimmed": false,
	"spriteSourceSize": {"x":0,"y":0,"w":69,"h":81},
	"sourceSize": {"w":69,"h":81}
},
"logo.png":
{
	"frame": {"x":2,"y":2,"w":629,"h":178},
	"rotated": false,
	"trimmed": false,
	"spriteSourceSize": {"x":0,"y":0,"w":629,"h":178},
	"sourceSize": {"w":629,"h":178}
},
"tile.png":
{
	"frame": {"x":633,"y":113,"w":95,"h":98},
	"rotated": false,
	"trimmed": false,
	"spriteSourceSize": {"x":0,"y":0,"w":95,"h":98},
	"sourceSize": {"w":95,"h":98}
}},
"meta": {
	"app": "Adobe Animate",
	"version": "16.1.0.86",
	"image": "no_collect.png",
	"format": "RGBA8888",
	"size": {"w":1024,"h":1024},
	"scale": "1"
}
}
